<?xml version="1.0" encoding="utf-8"?>
<!-- Generator: Adobe Illustrator 21.1.0, SVG Export Plug-In . SVG Version: 6.00 Build 0)  -->
<svg version="1.1" id="Layer_1" xmlns="http://www.w3.org/2000/svg" xmlns:xlink="http://www.w3.org/1999/xlink" x="0px" y="0px"
	 viewBox="0 0 576 576" style="enable-background:new 0 0 576 576;" xml:space="preserve">
<style type="text/css">
	.st0{fill:none;stroke:#000000;stroke-width:0.75;stroke-miterlimit:10;}
	.st1{fill:none;stroke:#000000;stroke-width:0.25;stroke-miterlimit:10;}
	.st2{fill:#0C0B14;}
</style>
<g id="gridlines">
	<line class="st0" x1="0" y1="576" x2="576" y2="0"/>
	<line class="st0" x1="576" y1="576" x2="0" y2="0"/>
	<line class="st1" x1="0" y1="0" x2="576" y2="0"/>
	<line class="st1" x1="0" y1="24" x2="576" y2="24"/>
	<line class="st1" x1="0" y1="48" x2="576" y2="48"/>
	<line class="st1" x1="0" y1="72" x2="576" y2="72"/>
	<line class="st1" x1="0" y1="96" x2="576" y2="96"/>
	<line class="st1" x1="0" y1="120" x2="576" y2="120"/>
	<line class="st1" x1="0" y1="144" x2="576" y2="144"/>
	<line class="st1" x1="0" y1="168" x2="576" y2="168"/>
	<line class="st0" x1="0" y1="192" x2="576" y2="192"/>
	<line class="st1" x1="0" y1="216" x2="576" y2="216"/>
	<line class="st1" x1="0" y1="240" x2="576" y2="240"/>
	<line class="st1" x1="0" y1="264" x2="576" y2="264"/>
	<line class="st0" x1="0" y1="288" x2="576" y2="288"/>
	<line class="st1" x1="0" y1="312" x2="576" y2="312"/>
	<line class="st1" x1="0" y1="312" x2="576" y2="312"/>
	<line class="st1" x1="0" y1="336" x2="576" y2="336"/>
	<line class="st1" x1="0" y1="360" x2="576" y2="360"/>
	<line class="st0" x1="0" y1="384" x2="576" y2="384"/>
	<line class="st1" x1="0" y1="408" x2="576" y2="408"/>
	<line class="st1" x1="0" y1="432" x2="576" y2="432"/>
	<line class="st1" x1="0" y1="456" x2="576" y2="456"/>
	<line class="st1" x1="0" y1="480" x2="576" y2="480"/>
	<line class="st1" x1="0" y1="504" x2="576" y2="504"/>
	<line class="st1" x1="0" y1="528" x2="576" y2="528"/>
	<line class="st1" x1="0" y1="552" x2="576" y2="552"/>
	<line class="st1" x1="0" y1="576" x2="576" y2="576"/>
	<line class="st1" x1="0" y1="576" x2="0" y2="0"/>
	<line class="st1" x1="24" y1="576" x2="24" y2="0"/>
	<line class="st1" x1="48" y1="576" x2="48" y2="0"/>
	<line class="st1" x1="72" y1="576" x2="72" y2="0"/>
	<line class="st1" x1="96" y1="576" x2="96" y2="0"/>
	<line class="st1" x1="120" y1="576" x2="120" y2="0"/>
	<line class="st1" x1="144" y1="576" x2="144" y2="0"/>
	<line class="st1" x1="168" y1="576" x2="168" y2="0"/>
	<line class="st0" x1="192" y1="576" x2="192" y2="0"/>
	<line class="st1" x1="216" y1="576" x2="216" y2="0"/>
	<line class="st1" x1="240" y1="576" x2="240" y2="0"/>
	<line class="st1" x1="264" y1="576" x2="264" y2="0"/>
	<line class="st0" x1="288" y1="576" x2="288" y2="0"/>
	<line class="st1" x1="312" y1="576" x2="312" y2="0"/>
	<line class="st1" x1="312" y1="576" x2="312" y2="0"/>
	<line class="st1" x1="336" y1="576" x2="336" y2="0"/>
	<line class="st1" x1="360" y1="576" x2="360" y2="0"/>
	<line class="st0" x1="384" y1="576" x2="384" y2="0"/>
	<line class="st1" x1="408" y1="576" x2="408" y2="0"/>
	<line class="st1" x1="432" y1="576" x2="432" y2="0"/>
	<line class="st1" x1="456" y1="576" x2="456" y2="0"/>
	<line class="st1" x1="480" y1="576" x2="480" y2="0"/>
	<line class="st1" x1="504" y1="576" x2="504" y2="0"/>
	<line class="st1" x1="528" y1="576" x2="528" y2="0"/>
	<line class="st1" x1="552" y1="576" x2="552" y2="0"/>
	<line class="st1" x1="576" y1="576" x2="576" y2="0"/>
	<circle class="st0" cx="288" cy="288" r="240"/>
	<circle class="st0" cx="288" cy="288" r="120"/>
	<path class="st0" d="M72,120c0-24,24-48,48-48h336c24,0,48,24,48,48v336c0,24-24,48-48,48H120c-24,0-48-24-48-48V120z"/>
	<path class="st0" d="M120,96c0-24,24-48,48-48h240c24,0,48,24,48,48v384c0,24-24,48-48,48H168c-24,0-48-24-48-48V96z"/>
	<path class="st0" d="M96,456c-24,0-48-24-48-48V168c0-24,24-48,48-48h384c24,0,48,24,48,48v240c0,24-24,48-48,48H96z"/>
</g>
<path id="i" class="st2" d="M321.4,161.1c-11.5,0.2-20.2-8.2-20.3-19.7c-0.2-11.8,9.3-21.2,21-21.4c11.1-0.2,20.1,8.4,20.3,19.5
	C342.7,151.5,333.4,160.9,321.4,161.1z M326.7,188.8L286.1,384h-29.2l40.4-195.2H326.7z"/>
</svg>
