<?xml version="1.0" encoding="UTF-8"?>
<svg width="200px" height="14px" viewBox="0 0 200 14" version="1.1" xmlns="http://www.w3.org/2000/svg" xmlns:xlink="http://www.w3.org/1999/xlink">
    <!-- Generator: Sketch 49.3 (51167) - http://www.bohemiancoding.com/sketch -->
    <title>Logo</title>
    <desc>Created with Sketch.</desc>
    <defs></defs>
    <g id="Desktop" stroke="none" stroke-width="1" fill="none" fill-rule="evenodd">
        <g id="Login" transform="translate(-620.000000, -190.000000)" fill="#FFFFFF">
            <g id="Logo" transform="translate(620.000000, 190.000000)">
                <path d="M36.3435262,0.275908936 C36.9833792,0.460244648 37.507438,0.683826028 37.9192837,0.945463812 C38.328742,1.20829086 38.6916437,1.46992864 39.0091827,1.73275569 C39.325528,1.99320421 39.5523416,2.21678559 39.6896235,2.39636425 L39.9056933,2.6782195 L38.0732782,4.50492695 C38.0350781,4.45497791 37.9837466,4.38362215 37.9192837,4.29323819 C37.8524334,4.20285423 37.7044077,4.04943935 37.4764004,3.82942576 C37.2471993,3.61179069 36.9988981,3.4203194 36.7291093,3.25382263 C36.4605142,3.08851512 36.1059688,2.93510024 35.6666667,2.79476724 C35.2273646,2.65443425 34.7797062,2.58426775 34.3224977,2.58426775 C33.0630854,2.58426775 32.0101928,3.006456 31.16382,3.84964322 C30.318641,4.69164118 29.8948577,5.74176011 29.8948577,6.99524295 C29.8948577,8.24991505 30.318641,9.29884472 31.16382,10.1420319 C32.0101928,10.9852192 33.0630854,11.4062181 34.3224977,11.4062181 C34.8107438,11.4062181 35.2798898,11.3396194 35.728742,11.2040435 C36.1752066,11.0708461 36.5476584,10.9114849 36.8413223,10.7283384 C37.1373737,10.5440027 37.3964187,10.3584777 37.6220386,10.169385 C37.8476584,9.98386001 38.0100092,9.81974176 38.1114784,9.68297655 L38.2618916,9.48674822 L40,11.3122664 C39.9498623,11.3883792 39.8746556,11.4858987 39.7707989,11.6072035 C39.6669421,11.7296976 39.437741,11.9449541 39.0843893,12.2529732 C38.7298439,12.5633707 38.3514233,12.8345226 37.9467401,13.0688073 C37.5420569,13.3030921 37.0132231,13.5171594 36.3578512,13.7110092 C35.7024793,13.9036697 35.0256198,14 34.3224977,14 C32.2668503,14 30.5323232,13.3149847 29.1189164,11.9449541 C27.7067034,10.5749235 27,8.92422698 27,6.99524295 C27,5.06506966 27.7067034,3.41913014 29.1189164,2.05028882 C30.5323232,0.683826028 32.2668503,0 34.3224977,0 C35.0303949,0 35.7048669,0.0927624873 36.3435262,0.275908936" id="Fill-344"></path>
                <polygon id="Fill-343" points="0 0 12 6.5 0 13"></polygon>
                <path d="M67.1380834,3.01027185 C66.7930365,2.67758789 66.35906,2.51067033 65.8361539,2.51067033 L62.8753908,2.51067033 L62.8753908,5.94686974 L65.8361539,5.94686974 C66.35906,5.94686974 66.7930365,5.78455681 67.1380834,5.46108209 C67.4843161,5.13875852 67.6562466,4.74045869 67.6562466,4.26963606 C67.6562466,3.76197645 67.4843161,3.34180466 67.1380834,3.01027185 Z M60,0 L65.9286407,0 C67.2554705,0 68.3522691,0.412113699 69.2214078,1.23749225 C70.0893608,2.0628708 70.5233373,3.07243425 70.5233373,4.26963606 C70.5233373,4.78995838 70.4403363,5.27574604 70.2719629,5.72930134 C70.1035895,6.18170548 69.9055729,6.54777296 69.6790988,6.82520145 C69.451439,7.1037811 69.2190363,7.34207031 68.9830764,7.54237138 C68.7459308,7.74037014 68.5431713,7.87735766 68.3747979,7.94988046 L68.1329093,8.07650757 L71,13 L67.9372642,13 L65.3594912,8.44948198 L62.8753908,8.44948198 L62.8753908,13 L60,13 L60,0 Z" id="Fill-346"></path>
                <path d="M94.3540494,10.1328463 C95.2153169,10.9830969 96.2637632,11.4064385 97.4993883,11.4064385 C98.7362368,11.4064385 99.7846831,10.9830969 100.644727,10.1328463 C101.505995,9.28378493 101.936628,8.23851185 101.936628,7.00059458 C101.936628,5.76148815 101.505995,4.71502591 100.644727,3.86358617 C99.7846831,3.01214644 98.7362368,2.58523741 97.4993883,2.58523741 C96.2637632,2.58523741 95.2153169,3.01214644 94.3540494,3.86358617 C93.4940054,4.71502591 93.0633717,5.76148815 93.0633717,7.00059458 C93.0633717,8.23851185 93.4940054,9.28378493 94.3540494,10.1328463 M92.1727428,2.05130383 C93.6200147,0.684957105 95.3963788,0 97.4993883,0 C99.6036212,0 101.379985,0.684957105 102.827257,2.05130383 C104.275752,3.41883972 105,5.06582859 105,6.99583793 C105,8.92465812 104.275752,10.5752145 102.827257,11.9439395 C101.379985,13.3150429 99.6036212,14 97.4993883,14 C95.3963788,14 93.6200147,13.3150429 92.1727428,11.9439395 C90.7242476,10.5752145 90,8.92465812 90,6.99583793 C90,5.06582859 90.7242476,3.41883972 92.1727428,2.05130383" id="Fill-348"></path>
                <polygon id="Fill-350" points="131.34323 0 134.131044 8.91109537 136.92005 0 140 0 135.577416 13 132.882609 13 130.000596 4.26963606 127.117391 13 124.422584 13 120 0 123.07995 0 125.868956 8.91109537 128.65677 0"></polygon>
                <path d="M158.909709,2.51182148 L158.909709,10.4973878 L161.035896,10.4973878 C162.157784,10.4973878 163.115288,10.1117506 163.909609,9.33817409 C164.70273,8.56344638 165.09869,7.6194988 165.09869,6.5051802 C165.09869,5.38971044 164.711129,4.44576286 163.937206,3.67218631 C163.162084,2.89860976 162.194981,2.51182148 161.035896,2.51182148 L158.909709,2.51182148 Z M161.035896,0 C163.008499,0 164.660734,0.628530948 165.9962,1.88559285 C167.332867,3.1438059 168,4.6805986 168,6.50057558 C168,8.3194014 167.332867,9.85734526 165.9962,11.1155583 C164.660734,12.3703179 163.008499,13 161.035896,13 L156,13 L156,0 L161.035896,0 Z" id="Fill-352"></path>
                <polygon id="Fill-354" points="200 0 188 6.5 200 13"></polygon>
            </g>
        </g>
    </g>
</svg>